{
    "name": "Books",
    "alias": "books",
    "description": "",
    "keywords": [],
    "active": 1,
    "order": 0,
    "providers": [
        "Modules\\Books\\Providers\\BooksServiceProvider",
        "Modules\\Books\\Providers\\AuthServiceProvider"
    ],
    "aliases": {},
    "files": [
        "start.php"
    ],
    "requires": []
}
