{
    "name": "Correspondence",
    "alias": "correspondence",
    "description": "",
    "keywords": [],
    "active": 1,
    "order": 0,
    "providers": [
        "Modules\\Correspondence\\Providers\\CorrespondenceServiceProvider",
        "Modules\\Correspondence\\Providers\\AuthServiceProvider"
    ],
    "aliases": {},
    "files": [
        "start.php"
    ],
    "requires": []
}
