{
    "name": "Flowpaper",
    "alias": "flowpaper",
    "description": "",
    "keywords": [],
    "active": 1,
    "order": 0,
    "providers": [
        "Modules\\Flowpaper\\Providers\\FlowpaperServiceProvider"
    ],
    "aliases": {},
    "files": [
        "start.php"
    ],
    "requires": []
}
